\relax 
\providecommand\hyper@newdestlabel[2]{}
\@writefile{lof}{\addvspace {10pt}}
\@writefile{lot}{\addvspace {10pt}}
\@writefile{toc}{\contentsline {chapter}{\chapternumberline {3}Presenting Business to the Assembly}{10}{chapter.3}\protected@file@percent }
\@writefile{toc}{\contentsline {section}{\numberline {3.1}Basic Steps in Presenting a Motion}{10}{section.3.1}\protected@file@percent }
\@writefile{toc}{\contentsline {section}{\numberline {3.2}Making a Main Motion}{11}{section.3.2}\protected@file@percent }
\@writefile{toc}{\contentsline {section}{\numberline {3.3}Discussing a Motion}{12}{section.3.3}\protected@file@percent }
\@writefile{toc}{\contentsline {section}{\numberline {3.4}Taking the Vote}{14}{section.3.4}\protected@file@percent }
\@writefile{toc}{\contentsline {section}{\numberline {3.5}Completing the Action on the Motion}{15}{section.3.5}\protected@file@percent }
\@writefile{toc}{\contentsline {section}{\numberline {3.6}Important Points to Remember Before Making a Motion}{15}{section.3.6}\protected@file@percent }
\@writefile{toc}{\contentsline {section}{\numberline {3.7}Resolutions}{16}{section.3.7}\protected@file@percent }
\@setckpt{chap/ch3}{
\setcounter{page}{17}
\setcounter{equation}{0}
\setcounter{enumi}{5}
\setcounter{enumii}{0}
\setcounter{enumiii}{0}
\setcounter{enumiv}{0}
\setcounter{footnote}{0}
\setcounter{mpfootnote}{0}
\setcounter{@memmarkcntra}{-1}
\setcounter{storedpagenumber}{1}
\setcounter{book}{0}
\setcounter{part}{0}
\setcounter{chapter}{3}
\setcounter{section}{7}
\setcounter{subsection}{0}
\setcounter{subsubsection}{0}
\setcounter{paragraph}{0}
\setcounter{subparagraph}{0}
\setcounter{@ppsavesec}{0}
\setcounter{@ppsaveapp}{0}
\setcounter{vslineno}{0}
\setcounter{poemline}{0}
\setcounter{modulo@vs}{0}
\setcounter{memfvsline}{0}
\setcounter{verse}{0}
\setcounter{chrsinstr}{0}
\setcounter{poem}{0}
\setcounter{newflo@tctr}{4}
\setcounter{@contsubnum}{0}
\setcounter{maxsecnumdepth}{1}
\setcounter{sidefootnote}{0}
\setcounter{pagenote}{0}
\setcounter{pagenoteshadow}{0}
\setcounter{memfbvline}{0}
\setcounter{bvlinectr}{0}
\setcounter{cp@cntr}{0}
\setcounter{ism@mctr}{0}
\setcounter{xsm@mctr}{0}
\setcounter{csm@mctr}{0}
\setcounter{ksm@mctr}{0}
\setcounter{xksm@mctr}{0}
\setcounter{cksm@mctr}{0}
\setcounter{msm@mctr}{0}
\setcounter{xmsm@mctr}{0}
\setcounter{cmsm@mctr}{0}
\setcounter{bsm@mctr}{0}
\setcounter{workm@mctr}{0}
\setcounter{sheetsequence}{21}
\setcounter{lastsheet}{114}
\setcounter{lastpage}{110}
\setcounter{figure}{0}
\setcounter{lofdepth}{1}
\setcounter{table}{0}
\setcounter{lotdepth}{1}
\setcounter{AM@survey}{0}
\setcounter{NAT@ctr}{0}
\setcounter{Item}{18}
\setcounter{Hfootnote}{0}
\setcounter{memhycontfloat}{0}
\setcounter{Hpagenote}{0}
\setcounter{bookmark@seq@number}{20}
\setcounter{section@level}{1}
}
