# Fdb version 3
["pdflatex"] 1579794172 "ch5.tex" "ch5.pdf" "ch5" 1579794172
  "C:/Users/Je Sian Keith Herman/AppData/Local/MiKTeX/2.9/miktex/data/le/pdftex/pdflatex.fmt" 1578211179 4319496 b8c7b8088ff956ae04d7b0d80e6ded1c ""
  "C:/Users/Je Sian Keith Herman/AppData/Local/Programs/MiKTeX 2.9/fonts/tfm/public/cm/cmbx10.tfm" 1136765053 1328 c834bbb027764024c09d3d2bf908b5f0 ""
  "C:/Users/Je Sian Keith Herman/AppData/Local/Programs/MiKTeX 2.9/fonts/tfm/public/cm/cmti10.tfm" 1136765053 1480 aa8e34af0eb6a2941b776984cf1dfdc4 ""
  "ch5.aux" 1579794144 2390 353b27cc5b6b82fa18ae48951514421c ""
  "ch5.tex" 1579794137 10227 2fd6a731f439dbd077e45bb45fad1895 ""
  (generated)
  "ch5.pdf"
  "ch5.log"
