\relax 
\providecommand\hyper@newdestlabel[2]{}
\providecommand*{\memsetcounter}[2]{}
\providecommand\HyperFirstAtBeginDocument{\AtBeginDocument}
\HyperFirstAtBeginDocument{\ifx\hyper@anchor\@undefined
\global\let\oldcontentsline\contentsline
\gdef\contentsline#1#2#3#4{\oldcontentsline{#1}{#2}{#3}}
\global\let\oldnewlabel\newlabel
\gdef\newlabel#1#2{\newlabelxx{#1}#2}
\gdef\newlabelxx#1#2#3#4#5#6{\oldnewlabel{#1}{{#2}{#3}}}
\AtEndDocument{\ifx\hyper@anchor\@undefined
\let\contentsline\oldcontentsline
\let\newlabel\oldnewlabel
\fi}
\fi}
\global\let\hyper@last\relax 
\gdef\HyperFirstAtBeginDocument#1{#1}
\providecommand\HyField@AuxAddToFields[1]{}
\providecommand\HyField@AuxAddToCoFields[2]{}
\@writefile{toc}{\contentsline {chapter}{Contents}{i}{section*.1}\protected@file@percent }
\@writefile{toc}{\contentsline {chapter}{List of Figures}{ii}{section*.2}\protected@file@percent }
\@writefile{toc}{\contentsline {chapter}{List of Tables}{ii}{section*.3}\protected@file@percent }
\@writefile{toc}{\contentsline {chapter}{Acknowledgments}{iii}{chapter*.4}\protected@file@percent }
\@writefile{toc}{\contentsline {chapter}{Abstract}{iv}{chapter*.5}\protected@file@percent }
\@input{chapters/intro.aux}
\@input{chapters/relatedlit.aux}
\@input{chapters/method.aux}
\@input{chapters/results.aux}
\@input{chapters/conc.aux}
\bibstyle{apa}
\bibdata{biblio}
\@writefile{toc}{\contentsline {chapter}{Bibliography}{8}{appendix*.6}\protected@file@percent }
\memsetcounter{lastsheet}{13}
\memsetcounter{lastpage}{8}
