This is BibTeX, Version 0.99dThe top-level auxiliary file: journal.aux
A level-1 auxiliary file: chapters/yr-2020.aux
I couldn't open auxiliary file chapters/yr-2021.aux
---line 25 of file journal.aux
 : \@input{chapters/yr-2021.aux
 :                             }
I'm skipping whatever remains of this command
I couldn't open auxiliary file chapters/yr-2022.aux
---line 26 of file journal.aux
 : \@input{chapters/yr-2022.aux
 :                             }
I'm skipping whatever remains of this command
I couldn't open auxiliary file chapters/yr-2023.aux
---line 27 of file journal.aux
 : \@input{chapters/yr-2023.aux
 :                             }
I'm skipping whatever remains of this command
The style file: apa.bst
I found no \citation commands---while reading file journal.aux
Database file #1: biblio.bib
(There were 4 error messages)
