\relax 
\providecommand\hyper@newdestlabel[2]{}
\@writefile{lof}{\addvspace {10pt}}
\@writefile{lot}{\addvspace {10pt}}
\@writefile{toc}{\contentsline {chapter}{\chapternumberline {3}Methodology}{5}{chapter.3}\protected@file@percent }
\newlabel{ch-method}{{\M@TitleReference {3}{Methodology}}{5}{Methodology}{chapter.3}{}}
\newlabel{ch-method@cref}{{[chapter][3][]3}{[1][5][]5}}
\@writefile{toc}{\contentsline {section}{\numberline {3.1}Time and Locale of the Study}{5}{section.3.1}\protected@file@percent }
\newlabel{sec-setting}{{\M@TitleReference {3.1}{Time and Locale of the Study}}{5}{Time and Locale of the Study}{section.3.1}{}}
\newlabel{sec-setting@cref}{{[section][1][3]3.1}{[1][5][]5}}
\@writefile{toc}{\contentsline {section}{\numberline {3.2}Research Design and Methods}{5}{section.3.2}\protected@file@percent }
\newlabel{sec-design}{{\M@TitleReference {3.2}{Research Design and Methods}}{5}{Research Design and Methods}{section.3.2}{}}
\newlabel{sec-design@cref}{{[section][2][3]3.2}{[1][5][]5}}
\@writefile{toc}{\contentsline {section}{\numberline {3.3}Materials and Sampling}{5}{section.3.3}\protected@file@percent }
\newlabel{sec-sampling}{{\M@TitleReference {3.3}{Materials and Sampling}}{5}{Materials and Sampling}{section.3.3}{}}
\newlabel{sec-sampling@cref}{{[section][3][3]3.3}{[1][5][]5}}
\@writefile{toc}{\contentsline {section}{\numberline {3.4}Equipment and Research Instrument Validation}{5}{section.3.4}\protected@file@percent }
\newlabel{sec-equipment}{{\M@TitleReference {3.4}{Equipment and Research Instrument Validation}}{5}{Equipment and Research Instrument Validation}{section.3.4}{}}
\newlabel{sec-equipment@cref}{{[section][4][3]3.4}{[1][5][]5}}
\@writefile{toc}{\contentsline {section}{\numberline {3.5}Data Gathering and Experimental Procedures}{5}{section.3.5}\protected@file@percent }
\newlabel{sec-data}{{\M@TitleReference {3.5}{Data Gathering and Experimental Procedures}}{5}{Data Gathering and Experimental Procedures}{section.3.5}{}}
\newlabel{sec-data@cref}{{[section][5][3]3.5}{[1][5][]5}}
\@writefile{toc}{\contentsline {section}{\numberline {3.6}Statistical Treatment}{5}{section.3.6}\protected@file@percent }
\newlabel{sec-statistics}{{\M@TitleReference {3.6}{Statistical Treatment}}{5}{Statistical Treatment}{section.3.6}{}}
\newlabel{sec-statistics@cref}{{[section][6][3]3.6}{[1][5][]5}}
\@setckpt{chapters/method}{
\setcounter{page}{6}
\setcounter{equation}{0}
\setcounter{enumi}{0}
\setcounter{enumii}{0}
\setcounter{enumiii}{0}
\setcounter{enumiv}{0}
\setcounter{footnote}{0}
\setcounter{mpfootnote}{0}
\setcounter{@memmarkcntra}{-1}
\setcounter{storedpagenumber}{1}
\setcounter{book}{0}
\setcounter{part}{0}
\setcounter{chapter}{3}
\setcounter{section}{6}
\setcounter{subsection}{0}
\setcounter{subsubsection}{0}
\setcounter{paragraph}{0}
\setcounter{subparagraph}{0}
\setcounter{@ppsavesec}{0}
\setcounter{@ppsaveapp}{0}
\setcounter{vslineno}{0}
\setcounter{poemline}{0}
\setcounter{modulo@vs}{0}
\setcounter{memfvsline}{0}
\setcounter{verse}{0}
\setcounter{chrsinstr}{0}
\setcounter{poem}{0}
\setcounter{newflo@tctr}{4}
\setcounter{@contsubnum}{0}
\setcounter{maxsecnumdepth}{1}
\setcounter{sidefootnote}{0}
\setcounter{pagenote}{0}
\setcounter{pagenoteshadow}{0}
\setcounter{memfbvline}{0}
\setcounter{bvlinectr}{0}
\setcounter{cp@cntr}{0}
\setcounter{ism@mctr}{0}
\setcounter{xsm@mctr}{0}
\setcounter{csm@mctr}{0}
\setcounter{ksm@mctr}{0}
\setcounter{xksm@mctr}{0}
\setcounter{cksm@mctr}{0}
\setcounter{msm@mctr}{0}
\setcounter{xmsm@mctr}{0}
\setcounter{cmsm@mctr}{0}
\setcounter{bsm@mctr}{0}
\setcounter{workm@mctr}{0}
\setcounter{sheetsequence}{11}
\setcounter{lastsheet}{13}
\setcounter{lastpage}{8}
\setcounter{figure}{0}
\setcounter{lofdepth}{1}
\setcounter{table}{0}
\setcounter{lotdepth}{1}
\setcounter{caption@flags}{0}
\setcounter{continuedfloat}{0}
\setcounter{subfigure}{0}
\setcounter{subtable}{0}
\setcounter{Item}{0}
\setcounter{Hfootnote}{0}
\setcounter{memhycontfloat}{0}
\setcounter{Hpagenote}{0}
\setcounter{bookmark@seq@number}{25}
\setcounter{section@level}{1}
}
