\relax 
\providecommand\hyper@newdestlabel[2]{}
\@writefile{lof}{\addvspace {10pt}}
\@writefile{lot}{\addvspace {10pt}}
\@writefile{toc}{\contentsline {chapter}{\chapternumberline {2}Review of Related Literature and Studies}{4}{chapter.2}\protected@file@percent }
\newlabel{ch-relatedlit}{{\M@TitleReference {2}{Review of Related Literature and Studies}}{4}{Review of Related Literature and Studies}{chapter.2}{}}
\newlabel{ch-relatedlit@cref}{{[chapter][2][]2}{[1][4][]4}}
\@writefile{toc}{\contentsline {section}{\numberline {2.1}Discussion of Related Literature}{4}{section.2.1}\protected@file@percent }
\newlabel{sec-relatedlit}{{\M@TitleReference {2.1}{Discussion of Related Literature}}{4}{Discussion of Related Literature}{section.2.1}{}}
\newlabel{sec-relatedlit@cref}{{[section][1][2]2.1}{[1][4][]4}}
\@writefile{toc}{\contentsline {section}{\numberline {2.2}Gap Bridged by the Study}{4}{section.2.2}\protected@file@percent }
\newlabel{sec-gap}{{\M@TitleReference {2.2}{Gap Bridged by the Study}}{4}{Gap Bridged by the Study}{section.2.2}{}}
\newlabel{sec-gap@cref}{{[section][2][2]2.2}{[1][4][]4}}
\@writefile{toc}{\contentsline {section}{\numberline {2.3}Conceptual Framework}{4}{section.2.3}\protected@file@percent }
\newlabel{sec-concept}{{\M@TitleReference {2.3}{Conceptual Framework}}{4}{Conceptual Framework}{section.2.3}{}}
\newlabel{sec-concept@cref}{{[section][3][2]2.3}{[1][4][]4}}
\@writefile{toc}{\contentsline {section}{\numberline {2.4}Theoretical Framework}{4}{section.2.4}\protected@file@percent }
\newlabel{sec-theory}{{\M@TitleReference {2.4}{Theoretical Framework}}{4}{Theoretical Framework}{section.2.4}{}}
\newlabel{sec-theory@cref}{{[section][4][2]2.4}{[1][4][]4}}
\@writefile{toc}{\contentsline {section}{\numberline {2.5}Definition of Terms}{4}{section.2.5}\protected@file@percent }
\newlabel{sec-def}{{\M@TitleReference {2.5}{Definition of Terms}}{4}{Definition of Terms}{section.2.5}{}}
\newlabel{sec-def@cref}{{[section][5][2]2.5}{[1][4][]4}}
\@setckpt{chapters/relatedlit}{
\setcounter{page}{5}
\setcounter{equation}{0}
\setcounter{enumi}{0}
\setcounter{enumii}{0}
\setcounter{enumiii}{0}
\setcounter{enumiv}{0}
\setcounter{footnote}{0}
\setcounter{mpfootnote}{0}
\setcounter{@memmarkcntra}{-1}
\setcounter{storedpagenumber}{1}
\setcounter{book}{0}
\setcounter{part}{0}
\setcounter{chapter}{2}
\setcounter{section}{5}
\setcounter{subsection}{0}
\setcounter{subsubsection}{0}
\setcounter{paragraph}{0}
\setcounter{subparagraph}{0}
\setcounter{@ppsavesec}{0}
\setcounter{@ppsaveapp}{0}
\setcounter{vslineno}{0}
\setcounter{poemline}{0}
\setcounter{modulo@vs}{0}
\setcounter{memfvsline}{0}
\setcounter{verse}{0}
\setcounter{chrsinstr}{0}
\setcounter{poem}{0}
\setcounter{newflo@tctr}{4}
\setcounter{@contsubnum}{0}
\setcounter{maxsecnumdepth}{1}
\setcounter{sidefootnote}{0}
\setcounter{pagenote}{0}
\setcounter{pagenoteshadow}{0}
\setcounter{memfbvline}{0}
\setcounter{bvlinectr}{0}
\setcounter{cp@cntr}{0}
\setcounter{ism@mctr}{0}
\setcounter{xsm@mctr}{0}
\setcounter{csm@mctr}{0}
\setcounter{ksm@mctr}{0}
\setcounter{xksm@mctr}{0}
\setcounter{cksm@mctr}{0}
\setcounter{msm@mctr}{0}
\setcounter{xmsm@mctr}{0}
\setcounter{cmsm@mctr}{0}
\setcounter{bsm@mctr}{0}
\setcounter{workm@mctr}{0}
\setcounter{sheetsequence}{10}
\setcounter{lastsheet}{13}
\setcounter{lastpage}{8}
\setcounter{figure}{0}
\setcounter{lofdepth}{1}
\setcounter{table}{0}
\setcounter{lotdepth}{1}
\setcounter{caption@flags}{0}
\setcounter{continuedfloat}{0}
\setcounter{subfigure}{0}
\setcounter{subtable}{0}
\setcounter{Item}{0}
\setcounter{Hfootnote}{0}
\setcounter{memhycontfloat}{0}
\setcounter{Hpagenote}{0}
\setcounter{bookmark@seq@number}{18}
\setcounter{section@level}{1}
}
