\begin{thebibliography}{2}
\expandafter\ifx\csname natexlab\endcsname\relax\def\natexlab#1{#1}\fi
\expandafter\ifx\csname url\endcsname\relax
  \def\url#1{{\tt #1}}\fi
\expandafter\ifx\csname urlprefix\endcsname\relax\def\urlprefix{URL }\fi

\bibitem[{Productions(2001)}]{robert2001}
Productions, R.~M. (2001).
\newblock {\em Robert's Rules of Order: Simplified and Applied\/}.
\newblock Wiley Publishing Inc., 2nd ed.

\bibitem[{Robert et~al.(2011)Robert, Honemann, Balch, Seabold, \&
  Gerber}]{robert2011}
Robert, H. M.~I., Honemann, D.~H., Balch, T.~J., Seabold, D.~E., \& Gerber, S.
  (2011).
\newblock {\em Robert's Rules of Order Newly Revised\/}.
\newblock Da Capo Press, 11th ed.

\end{thebibliography}
