\relax 
\providecommand\hyper@newdestlabel[2]{}
\providecommand*{\memsetcounter}[2]{}
\@nameuse{bbl@beforestart}
\providecommand\HyperFirstAtBeginDocument{\AtBeginDocument}
\HyperFirstAtBeginDocument{\ifx\hyper@anchor\@undefined
\global\let\oldcontentsline\contentsline
\gdef\contentsline#1#2#3#4{\oldcontentsline{#1}{#2}{#3}}
\global\let\oldnewlabel\newlabel
\gdef\newlabel#1#2{\newlabelxx{#1}#2}
\gdef\newlabelxx#1#2#3#4#5#6{\oldnewlabel{#1}{{#2}{#3}}}
\AtEndDocument{\ifx\hyper@anchor\@undefined
\let\contentsline\oldcontentsline
\let\newlabel\oldnewlabel
\fi}
\fi}
\global\let\hyper@last\relax 
\gdef\HyperFirstAtBeginDocument#1{#1}
\providecommand\HyField@AuxAddToFields[1]{}
\providecommand\HyField@AuxAddToCoFields[2]{}
\babel@aux{english}{}
\citation{robert2001}
\citation{robert2001}
\citation{robert2011}
\@writefile{lof}{\addvspace {10pt}}
\@writefile{lot}{\addvspace {10pt}}
\@writefile{toc}{\contentsline {chapter}{Note to the Reader}{i}{chapter*.1}\protected@file@percent }
\@writefile{toc}{\contentsline {chapter}{Contents}{ii}{section*.2}\protected@file@percent }
\@input{chap/ch1.aux}
\@input{chap/ch2.aux}
\@input{chap/ch3.aux}
\@input{chap/ch4.aux}
\@input{chap/ch5.aux}
\@writefile{lof}{\addvspace {10pt}}
\@writefile{lot}{\addvspace {10pt}}
\@writefile{toc}{\contentsline {chapter}{\chapternumberline {6}\ignorespaces Motions}{33}{chapter.6}\protected@file@percent }
\newlabel{ch6}{{\M@TitleReference {6}{\ignorespaces Motions}}{33}{\the \AM@toc@title }{chapter.6}{}}
\@input{chap/ch7.aux}
\@writefile{lof}{\addvspace {10pt}}
\@writefile{lot}{\addvspace {10pt}}
\@writefile{toc}{\contentsline {chapter}{\chapternumberline {8}\ignorespaces Most Frequently Asked Questions}{50}{chapter.8}\protected@file@percent }
\newlabel{ch8}{{\M@TitleReference {8}{\ignorespaces Most Frequently Asked Questions}}{50}{\the \AM@toc@title }{chapter.8}{}}
\@writefile{lof}{\addvspace {10pt}}
\@writefile{lot}{\addvspace {10pt}}
\@writefile{toc}{\contentsline {appendix}{\chapternumberline {A}\ignorespaces Correct Parliamentary Terminology}{80}{appendix.A}\protected@file@percent }
\newlabel{apndx-A}{{\M@TitleReference {A}{\ignorespaces Correct Parliamentary Terminology}}{80}{\the \AM@toc@title }{appendix.A}{}}
\@writefile{lof}{\addvspace {10pt}}
\@writefile{lot}{\addvspace {10pt}}
\@writefile{toc}{\contentsline {appendix}{\chapternumberline {B}\ignorespaces Meeting Script}{99}{appendix.B}\protected@file@percent }
\newlabel{apndx-B}{{\M@TitleReference {B}{\ignorespaces Meeting Script}}{99}{\the \AM@toc@title }{appendix.B}{}}
\@writefile{lof}{\addvspace {10pt}}
\@writefile{lot}{\addvspace {10pt}}
\@writefile{toc}{\contentsline {appendix}{\chapternumberline {C}Steps in Making a Motion}{104}{appendix.C}\protected@file@percent }
\@writefile{lof}{\addvspace {10pt}}
\@writefile{lot}{\addvspace {10pt}}
\@writefile{toc}{\contentsline {appendix}{\chapternumberline {D}Ranking of Motions}{106}{appendix.D}\protected@file@percent }
\@writefile{lof}{\addvspace {10pt}}
\@writefile{lot}{\addvspace {10pt}}
\@writefile{toc}{\contentsline {appendix}{\chapternumberline {E}Motions That Take a Majority Vote}{107}{appendix.E}\protected@file@percent }
\@writefile{lof}{\addvspace {10pt}}
\@writefile{lot}{\addvspace {10pt}}
\@writefile{toc}{\contentsline {appendix}{\chapternumberline {F}Motions That Take a Two-Thirds Vote}{108}{appendix.F}\protected@file@percent }
\@writefile{lof}{\addvspace {10pt}}
\@writefile{lot}{\addvspace {10pt}}
\@writefile{toc}{\contentsline {appendix}{\chapternumberline {G}Proposed Agenda and Order of Business}{109}{appendix.G}\protected@file@percent }
\newlabel{apndx-G}{{\M@TitleReference {G}{Proposed Agenda and Order of Business}}{109}{Proposed Agenda and Order of Business}{appendix.G}{}}
\bibstyle{apa-good}
\bibdata{mybib}
\bibcite{robert2001}{{1}{2001}{{Productions}}{{}}}
\bibcite{robert2011}{{2}{2011}{{Robert et~al.}}{{Robert, Honemann, Balch, Seabold, \& Gerber}}}
\@writefile{toc}{\contentsline {chapter}{Bibliography}{110}{appendix*.16}\protected@file@percent }
\memsetcounter{lastsheet}{114}
\memsetcounter{lastpage}{110}
